…
(Dispersion parameter for binomial family taken to be 1)

    Null deviance: 5701.5  on 4921  degrees of freedom
Residual deviance: 4026.8  on 4898  degrees of freedom
AIC: 4074.8

Number of Fisher Scoring iterations: 6

# A tibble: 24 x 5
   term              estimate std.error statistic p.value
   <chr>                <dbl>     <dbl>     <dbl>   <dbl>
 1 (Intercept)        0.982      1.12      0.880  0.379  
 2 SeniorCitizen      0.150      0.103     1.47   0.142  
 3 tenure             0.0326     0.0832    0.392  0.695  
 4 MonthlyCharges    -0.00929    0.0536   -0.173  0.862  
 5 TotalCharges      -0.142      0.0487   -2.92   0.00348
 6 gender_Male        0.00356    0.0785    0.0454 0.964  
 7 Partner_Yes        0.115      0.0939    1.23   0.220  
 8 Dependents_Yes    -0.227      0.108    -2.10   0.0357 
 9 PhoneService_Yes  -0.0796     0.794    -0.100  0.920  
10 MultipleLines_Yes  0.483      0.210     2.29   0.0217 
# ... with 14 more rows
…
